{
    "asset" : {
        "generator" : "Khronos glTF Blender I/O v0.9.35",
        "version" : "2.0"
    },
    "scene" : 0,
    "scenes" : [
        {
            "name" : "Scene",
            "nodes" : [
                0,
                1,
                2,
                3,
                4,
                5,
                6,
                7,
                8,
                9,
                10,
                11,
                12,
                13,
                14,
                15,
                16,
                17
            ]
        }
    ],
    "nodes" : [
        {
            "mesh" : 0,
            "name" : "back_cover",
            "rotation" : [
                -0.9872277975082397,
                0,
                0,
                -0.15931491553783417
            ],
            "scale" : [
                0.9857916235923767,
                1.0178561210632324,
                -1.0178561210632324
            ],
            "translation" : [
                -4.9870461225509644e-05,
                0.01233408972620964,
                0.007163175381720066
            ]
        },
        {
            "mesh" : 1,
            "name" : "buttons",
            "rotation" : [
                0.015243723057210445,
                0,
                0,
                0.9998838305473328
            ],
            "scale" : [
                0.9915097951889038,
                0.9915098547935486,
                0.9915098547935486
            ],
            "translation" : [
                -0.0005012042820453644,
                0.0009629330597817898,
                0.010297693312168121
            ]
        },
        {
            "mesh" : 2,
            "name" : "hole",
            "rotation" : [
                -0.112652488052845,
                -0.11265240609645844,
                -0.6980754733085632,
                0.698075532913208
            ],
            "scale" : [
                0.0024984520860016346,
                0.0024984523188322783,
                0.0024984520860016346
            ],
            "translation" : [
                0.027322333306074142,
                0.04101879522204399,
                -0.003017846727743745
            ]
        },
        {
            "mesh" : 3,
            "name" : "cap_top",
            "rotation" : [
                0.5854231119155884,
                0,
                0,
                0.8107279539108276
            ],
            "scale" : [
                0.05911419168114662,
                0.0012391074560582638,
                0.037944186478853226
            ],
            "translation" : [
                0.00016953051090240479,
                -0.019179150462150574,
                0.014815636910498142
            ]
        },
        {
            "mesh" : 4,
            "name" : "inside_top",
            "rotation" : [
                0.5854231119155884,
                0,
                0,
                0.8107279539108276
            ],
            "scale" : [
                0.06608222424983978,
                0.0012320148525759578,
                0.037727005779743195
            ],
            "translation" : [
                0.00016777589917182922,
                0.030612371861934662,
                0.0005837678909301758
            ]
        },
        {
            "mesh" : 5,
            "name" : "bezel_right",
            "rotation" : [
                0.5854231119155884,
                0,
                0,
                0.8107279539108276
            ],
            "scale" : [
                0.058775804936885834,
                0.0012333462946116924,
                0.03809674084186554
            ],
            "translation" : [
                0.026578430086374283,
                0.005683043971657753,
                0.008781985379755497
            ]
        },
        {
            "mesh" : 6,
            "name" : "side_right",
            "rotation" : [
                0.5854231119155884,
                0,
                0,
                0.8107279539108276
            ],
            "scale" : [
                0.058775804936885834,
                0.0012337708612903953,
                0.03821384534239769
            ],
            "translation" : [
                0.027001772075891495,
                0.005688273347914219,
                0.008730284869670868
            ]
        },
        {
            "mesh" : 7,
            "name" : "side_left",
            "rotation" : [
                0,
                -0.5854230523109436,
                0.8107279539108276,
                -2.793069882045529e-07
            ],
            "scale" : [
                0.058775804936885834,
                0.0012337705120444298,
                0.038213834166526794
            ],
            "translation" : [
                -0.026938704773783684,
                0.005668585188686848,
                0.008671702817082405
            ]
        },
        {
            "mesh" : 8,
            "name" : "nameplate",
            "rotation" : [
                -0.1593145728111267,
                0,
                0,
                0.9872278571128845
            ],
            "scale" : [
                0.025179073214530945,
                0.004918981809169054,
                0.0009314786293543875
            ],
            "translation" : [
                0.00013247504830360413,
                0.009767582640051842,
                0.01759776473045349
            ]
        },
        {
            "mesh" : 9,
            "name" : "cap",
            "rotation" : [
                0,
                0.15931473672389984,
                0.9872278571128845,
                -2.879117175780266e-07
            ],
            "scale" : [
                0.013306786306202412,
                0.01164992805570364,
                0.013306787237524986
            ],
            "translation" : [
                0.00018964707851409912,
                0.029557719826698303,
                0.0007917266339063644
            ]
        },
        {
            "mesh" : 10,
            "name" : "inside",
            "rotation" : [
                0.5834755301475525,
                0,
                0,
                0.8121307492256165
            ],
            "scale" : [
                0.010340949520468712,
                0.010340948589146137,
                0.0033908626064658165
            ],
            "translation" : [
                0.00016509369015693665,
                0.004925254266709089,
                0.0023211874067783356
            ]
        },
        {
            "mesh" : 11,
            "name" : "logo_bottom",
            "scale" : [
                0.0016153502510860562,
                0.0016153502510860562,
                0.0016153502510860562
            ],
            "translation" : [
                0.00036782771348953247,
                -0.029318036511540413,
                -0.028622476384043694
            ]
        },
        {
            "mesh" : 12,
            "name" : "stand",
            "scale" : [
                0.9956836700439453,
                0.9956836700439453,
                0.9956836700439453
            ],
            "translation" : [
                0.00019529089331626892,
                0.00276140752248466,
                0.008654927834868431
            ]
        },
        {
            "mesh" : 13,
            "name" : "logo_top",
            "rotation" : [
                0.5854231119155884,
                0,
                0,
                0.8107279539108276
            ],
            "scale" : [
                0.0016153502510860562,
                0.0016153506003320217,
                0.0016153506003320217
            ],
            "translation" : [
                0.000581592321395874,
                0.010130835697054863,
                0.018493566662073135
            ]
        },
        {
            "mesh" : 14,
            "name" : "light",
            "rotation" : [
                -0.1593145728111267,
                0,
                0,
                0.9872278571128845
            ],
            "scale" : [
                0.0012166135711595416,
                0.0012166135711595416,
                0.0012166135711595416
            ],
            "translation" : [
                0.00019976124167442322,
                0.009863203391432762,
                0.01788632571697235
            ]
        },
        {
            "mesh" : 15,
            "name" : "GearTop",
            "rotation" : [
                -0.80901700258255,
                0,
                0,
                0.5877852439880371
            ],
            "scale" : [
                0.0019493169384077191,
                0.0019493178697302938,
                0.0019493178697302938
            ],
            "translation" : [
                -0.017172040417790413,
                0.003800054546445608,
                -0.0015400638803839684
            ]
        },
        {
            "mesh" : 16,
            "name" : "Gear_bottom",
            "rotation" : [
                0,
                0,
                -0.7071067690849304,
                0.7071067690849304
            ],
            "scale" : [
                0.0019493169384077191,
                0.0019493178697302938,
                0.0019493178697302938
            ],
            "translation" : [
                0.03245339170098305,
                -0.04231509566307068,
                0.0246752817183733
            ]
        },
        {
            "mesh" : 17,
            "name" : "bezel_right.002",
            "rotation" : [
                0.5854231119155884,
                0,
                0,
                0.8107279539108276
            ],
            "scale" : [
                -0.058775804936885834,
                0.0012333462946116924,
                0.03809674084186554
            ],
            "translation" : [
                -0.026404689997434616,
                0.005683043971657753,
                0.008781985379755497
            ]
        }
    ],
    "materials" : [
        {
            "doubleSided" : true,
            "name" : "Metal",
            "pbrMetallicRoughness" : {
                "baseColorFactor" : [
                    0.800000011920929,
                    0.800000011920929,
                    0.800000011920929,
                    1
                ],
                "metallicFactor" : 0.9589999914169312,
                "roughnessFactor" : 0.05900000035762787
            }
        },
        {
            "doubleSided" : true,
            "name" : "Msterial_in",
            "pbrMetallicRoughness" : {
                "baseColorFactor" : [
                    0.019802063703536987,
                    0.019207321107387543,
                    0.01790599338710308,
                    1
                ],
                "metallicFactor" : 0,
                "roughnessFactor" : 0.1550000011920929
            }
        },
        {
            "doubleSided" : true,
            "name" : "plastic",
            "normalTexture" : {
                "index" : 0,
                "texCoord" : 0
            },
            "pbrMetallicRoughness" : {
                "baseColorTexture" : {
                    "index" : 1,
                    "texCoord" : 0
                },
                "metallicFactor" : 0.027272727340459824,
                "roughnessFactor" : 0.15454545617103577
            }
        },
        {
            "doubleSided" : true,
            "name" : "Base_white",
            "pbrMetallicRoughness" : {
                "baseColorFactor" : [
                    0.7912981510162354,
                    0.7379106283187866,
                    0.6514058113098145,
                    1
                ],
                "metallicFactor" : 0.027000000700354576,
                "roughnessFactor" : 0.1550000011920929
            }
        },
        {
            "doubleSided" : true,
            "name" : "Metal.001",
            "pbrMetallicRoughness" : {
                "baseColorFactor" : [
                    0.15591508150100708,
                    0.15591508150100708,
                    0.15591508150100708,
                    1
                ],
                "metallicFactor" : 0.9589999914169312,
                "roughnessFactor" : 0.05900000035762787
            }
        },
        {
            "doubleSided" : true,
            "name" : "Black",
            "pbrMetallicRoughness" : {
                "baseColorFactor" : [
                    0.024861954152584076,
                    0.024861954152584076,
                    0.024861954152584076,
                    1
                ],
                "metallicFactor" : 0.9589999914169312,
                "roughnessFactor" : 0.05900000035762787
            }
        },
        {
            "doubleSided" : true,
            "name" : "Black.001",
            "pbrMetallicRoughness" : {
                "baseColorFactor" : [
                    0.024861954152584076,
                    0.024861954152584076,
                    0.024861954152584076,
                    1
                ],
                "metallicFactor" : 0.9589999914169312,
                "roughnessFactor" : 0.05900000035762787
            }
        },
        {
            "doubleSided" : true,
            "name" : "Red_Glass",
            "pbrMetallicRoughness" : {
                "baseColorFactor" : [
                    0.21386855840682983,
                    0.0009783636778593063,
                    0,
                    1
                ],
                "metallicFactor" : 0,
                "roughnessFactor" : 0.07100000232458115
            }
        },
        {
            "doubleSided" : true,
            "name" : "Green_Glass",
            "pbrMetallicRoughness" : {
                "baseColorFactor" : [
                    0.010833905078470707,
                    0.1328200101852417,
                    0,
                    1
                ],
                "metallicFactor" : 0,
                "roughnessFactor" : 0.07100000232458115
            }
        }
    ],
    "meshes" : [
        {
            "name" : "Mesh.008",
            "primitives" : [
                {
                    "attributes" : {
                        "POSITION" : 0,
                        "NORMAL" : 1,
                        "TEXCOORD_0" : 2,
                        "TEXCOORD_1" : 3
                    },
                    "indices" : 4,
                    "material" : 0
                },
                {
                    "attributes" : {
                        "POSITION" : 5,
                        "NORMAL" : 6,
                        "TEXCOORD_0" : 7,
                        "TEXCOORD_1" : 8
                    },
                    "indices" : 9,
                    "material" : 1
                }
            ]
        },
        {
            "name" : "Circle.002",
            "primitives" : [
                {
                    "attributes" : {
                        "POSITION" : 10,
                        "NORMAL" : 11,
                        "TEXCOORD_0" : 12
                    },
                    "indices" : 13,
                    "material" : 2
                }
            ]
        },
        {
            "name" : "Circle.000",
            "primitives" : [
                {
                    "attributes" : {
                        "POSITION" : 14,
                        "NORMAL" : 15
                    },
                    "indices" : 16,
                    "material" : 1
                },
                {
                    "attributes" : {
                        "POSITION" : 17,
                        "NORMAL" : 18
                    },
                    "indices" : 19,
                    "material" : 0
                }
            ]
        },
        {
            "name" : "Cube.004",
            "primitives" : [
                {
                    "attributes" : {
                        "POSITION" : 20,
                        "NORMAL" : 21
                    },
                    "indices" : 22,
                    "material" : 3
                }
            ]
        },
        {
            "name" : "Cube.013",
            "primitives" : [
                {
                    "attributes" : {
                        "POSITION" : 23,
                        "NORMAL" : 24
                    },
                    "indices" : 25,
                    "material" : 1
                }
            ]
        },
        {
            "name" : "Cube.014",
            "primitives" : [
                {
                    "attributes" : {
                        "POSITION" : 26,
                        "NORMAL" : 27
                    },
                    "indices" : 28,
                    "material" : 0
                },
                {
                    "attributes" : {
                        "POSITION" : 29,
                        "NORMAL" : 30
                    },
                    "indices" : 31,
                    "material" : 4
                }
            ]
        },
        {
            "name" : "Cube.012",
            "primitives" : [
                {
                    "attributes" : {
                        "POSITION" : 32,
                        "NORMAL" : 33
                    },
                    "indices" : 34,
                    "material" : 3
                }
            ]
        },
        {
            "name" : "Cube.017",
            "primitives" : [
                {
                    "attributes" : {
                        "POSITION" : 35,
                        "NORMAL" : 36
                    },
                    "indices" : 37,
                    "material" : 3
                }
            ]
        },
        {
            "name" : "Cube.006",
            "primitives" : [
                {
                    "attributes" : {
                        "POSITION" : 38,
                        "NORMAL" : 39
                    },
                    "indices" : 40,
                    "material" : 0
                }
            ]
        },
        {
            "name" : "HoneyComb.008",
            "primitives" : [
                {
                    "attributes" : {
                        "POSITION" : 41,
                        "NORMAL" : 42
                    },
                    "indices" : 43,
                    "material" : 3
                },
                {
                    "attributes" : {
                        "POSITION" : 44,
                        "NORMAL" : 45
                    },
                    "indices" : 46,
                    "material" : 3
                },
                {
                    "attributes" : {
                        "POSITION" : 47,
                        "NORMAL" : 48
                    },
                    "indices" : 49,
                    "material" : 3
                },
                {
                    "attributes" : {
                        "POSITION" : 50,
                        "NORMAL" : 51
                    },
                    "indices" : 52,
                    "material" : 3
                }
            ]
        },
        {
            "name" : "Plane",
            "primitives" : [
                {
                    "attributes" : {
                        "POSITION" : 53,
                        "NORMAL" : 54
                    },
                    "indices" : 55,
                    "material" : 1
                }
            ]
        },
        {
            "name" : "Plane.003",
            "primitives" : [
                {
                    "attributes" : {
                        "POSITION" : 56,
                        "NORMAL" : 57,
                        "TEXCOORD_0" : 58
                    },
                    "indices" : 59,
                    "material" : 5
                }
            ]
        },
        {
            "name" : "Plane.002",
            "primitives" : [
                {
                    "attributes" : {
                        "POSITION" : 60,
                        "NORMAL" : 61,
                        "TEXCOORD_0" : 62
                    },
                    "indices" : 63,
                    "material" : 0
                }
            ]
        },
        {
            "name" : "Plane.004",
            "primitives" : [
                {
                    "attributes" : {
                        "POSITION" : 64,
                        "NORMAL" : 65,
                        "TEXCOORD_0" : 66
                    },
                    "indices" : 59,
                    "material" : 6
                }
            ]
        },
        {
            "name" : "Roundcube",
            "primitives" : [
                {
                    "attributes" : {
                        "POSITION" : 67,
                        "NORMAL" : 68
                    },
                    "indices" : 69,
                    "material" : 7
                },
                {
                    "attributes" : {
                        "POSITION" : 70,
                        "NORMAL" : 71
                    },
                    "indices" : 72,
                    "material" : 8
                }
            ]
        },
        {
            "name" : "Gear.002",
            "primitives" : [
                {
                    "attributes" : {
                        "POSITION" : 73,
                        "NORMAL" : 74,
                        "TEXCOORD_0" : 75,
                        "JOINTS_0" : 76,
                        "WEIGHTS_0" : 77
                    },
                    "indices" : 78,
                    "material" : 0
                }
            ]
        },
        {
            "name" : "Gear.003",
            "primitives" : [
                {
                    "attributes" : {
                        "POSITION" : 79,
                        "NORMAL" : 80,
                        "TEXCOORD_0" : 81,
                        "JOINTS_0" : 82,
                        "WEIGHTS_0" : 83
                    },
                    "indices" : 84,
                    "material" : 0
                }
            ]
        },
        {
            "name" : "Cube.001",
            "primitives" : [
                {
                    "attributes" : {
                        "POSITION" : 85,
                        "NORMAL" : 86
                    },
                    "indices" : 28,
                    "material" : 0
                },
                {
                    "attributes" : {
                        "POSITION" : 87,
                        "NORMAL" : 88
                    },
                    "indices" : 31,
                    "material" : 4
                }
            ]
        }
    ],
    "textures" : [
        {
            "source" : 0
        },
        {
            "source" : 1
        }
    ],
    "images" : [
        {
            "mimeType" : "image/jpeg",
            "name" : "normal_map",
            "uri" : "normal_map.jpg"
        },
        {
            "mimeType" : "image/jpeg",
            "name" : "ambient",
            "uri" : "ambient.jpg"
        }
    ],
    "accessors" : [
        {
            "bufferView" : 0,
            "componentType" : 5126,
            "count" : 140,
            "max" : [
                0.025340812280774117,
                0.010411999188363552,
                -0.006988191045820713
            ],
            "min" : [
                -0.02512245625257492,
                0.0004698815755546093,
                -0.010881724767386913
            ],
            "type" : "VEC3"
        },
        {
            "bufferView" : 1,
            "componentType" : 5126,
            "count" : 140,
            "type" : "VEC3"
        },
        {
            "bufferView" : 2,
            "componentType" : 5126,
            "count" : 140,
            "type" : "VEC2"
        },
        {
            "bufferView" : 3,
            "componentType" : 5126,
            "count" : 140,
            "type" : "VEC2"
        },
        {
            "bufferView" : 4,
            "componentType" : 5123,
            "count" : 432,
            "type" : "SCALAR"
        },
        {
            "bufferView" : 5,
            "componentType" : 5126,
            "count" : 18,
            "max" : [
                0.025340812280774117,
                0.010411999188363552,
                -0.009249137714505196
            ],
            "min" : [
                -0.02512245625257492,
                0.0004698820994235575,
                -0.009250612929463387
            ],
            "type" : "VEC3"
        },
        {
            "bufferView" : 6,
            "componentType" : 5126,
            "count" : 18,
            "type" : "VEC3"
        },
        {
            "bufferView" : 7,
            "componentType" : 5126,
            "count" : 18,
            "type" : "VEC2"
        },
        {
            "bufferView" : 8,
            "componentType" : 5126,
            "count" : 18,
            "type" : "VEC2"
        },
        {
            "bufferView" : 9,
            "componentType" : 5123,
            "count" : 48,
            "type" : "SCALAR"
        },
        {
            "bufferView" : 10,
            "componentType" : 5126,
            "count" : 2538,
            "max" : [
                0.02847912348806858,
                0.04227345064282417,
                0.013838968239724636
            ],
            "min" : [
                -0.027478696778416634,
                -0.032583631575107574,
                -0.017456352710723877
            ],
            "type" : "VEC3"
        },
        {
            "bufferView" : 11,
            "componentType" : 5126,
            "count" : 2538,
            "type" : "VEC3"
        },
        {
            "bufferView" : 12,
            "componentType" : 5126,
            "count" : 2538,
            "type" : "VEC2"
        },
        {
            "bufferView" : 13,
            "componentType" : 5123,
            "count" : 6552,
            "type" : "SCALAR"
        },
        {
            "bufferView" : 14,
            "componentType" : 5126,
            "count" : 192,
            "max" : [
                0.8096553683280945,
                4.76837158203125e-06,
                0.8096486330032349
            ],
            "min" : [
                -0.8096572756767273,
                -0.6793460845947266,
                -0.8096640110015869
            ],
            "type" : "VEC3"
        },
        {
            "bufferView" : 15,
            "componentType" : 5126,
            "count" : 192,
            "type" : "VEC3"
        },
        {
            "bufferView" : 16,
            "componentType" : 5123,
            "count" : 954,
            "type" : "SCALAR"
        },
        {
            "bufferView" : 17,
            "componentType" : 5126,
            "count" : 320,
            "max" : [
                1.1950654983520508,
                4.76837158203125e-06,
                1.195058822631836
            ],
            "min" : [
                -1.1950675249099731,
                -0.11532552540302277,
                -1.1950740814208984
            ],
            "type" : "VEC3"
        },
        {
            "bufferView" : 18,
            "componentType" : 5126,
            "count" : 320,
            "type" : "VEC3"
        },
        {
            "bufferView" : 19,
            "componentType" : 5123,
            "count" : 1344,
            "type" : "SCALAR"
        },
        {
            "bufferView" : 20,
            "componentType" : 5126,
            "count" : 427,
            "max" : [
                0.4213108718395233,
                10.267879486083984,
                0.4681966006755829
            ],
            "min" : [
                -0.4213714003562927,
                -6.99939489364624,
                -0.6590990424156189
            ],
            "type" : "VEC3"
        },
        {
            "bufferView" : 21,
            "componentType" : 5126,
            "count" : 427,
            "type" : "VEC3"
        },
        {
            "bufferView" : 22,
            "componentType" : 5123,
            "count" : 2322,
            "type" : "SCALAR"
        },
        {
            "bufferView" : 23,
            "componentType" : 5126,
            "count" : 288,
            "max" : [
                0.3475925326347351,
                7.1259260177612305,
                0.49935662746429443
            ],
            "min" : [
                -0.3475925326347351,
                -7.328857421875,
                -0.4639233946800232
            ],
            "type" : "VEC3"
        },
        {
            "bufferView" : 24,
            "componentType" : 5126,
            "count" : 288,
            "type" : "VEC3"
        },
        {
            "bufferView" : 25,
            "componentType" : 5123,
            "count" : 1704,
            "type" : "SCALAR"
        },
        {
            "bufferView" : 26,
            "componentType" : 5126,
            "count" : 2619,
            "max" : [
                0.021551331505179405,
                8.049239158630371,
                1.1314446926116943
            ],
            "min" : [
                -0.0274313036352396,
                -8.158712387084961,
                -1.1875410079956055
            ],
            "type" : "VEC3"
        },
        {
            "bufferView" : 27,
            "componentType" : 5126,
            "count" : 2619,
            "type" : "VEC3"
        },
        {
            "bufferView" : 28,
            "componentType" : 5123,
            "count" : 12180,
            "type" : "SCALAR"
        },
        {
            "bufferView" : 29,
            "componentType" : 5126,
            "count" : 582,
            "max" : [
                -0.020218707621097565,
                8.049237251281738,
                1.1314445734024048
            ],
            "min" : [
                -0.026557644829154015,
                -8.158707618713379,
                -1.187540888786316
            ],
            "type" : "VEC3"
        },
        {
            "bufferView" : 30,
            "componentType" : 5126,
            "count" : 582,
            "type" : "VEC3"
        },
        {
            "bufferView" : 31,
            "componentType" : 5123,
            "count" : 1740,
            "type" : "SCALAR"
        },
        {
            "bufferView" : 32,
            "componentType" : 5126,
            "count" : 299,
            "max" : [
                4.289076400709746e-07,
                6.722864151000977,
                1.0845260620117188
            ],
            "min" : [
                -3.413049967093684e-07,
                -6.816773414611816,
                -1.1395325660705566
            ],
            "type" : "VEC3"
        },
        {
            "bufferView" : 33,
            "componentType" : 5126,
            "count" : 299,
            "type" : "VEC3"
        },
        {
            "bufferView" : 34,
            "componentType" : 5123,
            "count" : 621,
            "type" : "SCALAR"
        },
        {
            "bufferView" : 35,
            "componentType" : 5126,
            "count" : 185,
            "max" : [
                4.289076400709746e-07,
                6.722864151000977,
                1.0845260620117188
            ],
            "min" : [
                -2.863480972337129e-07,
                -6.816773414611816,
                -1.1395325660705566
            ],
            "type" : "VEC3"
        },
        {
            "bufferView" : 36,
            "componentType" : 5126,
            "count" : 185,
            "type" : "VEC3"
        },
        {
            "bufferView" : 37,
            "componentType" : 5123,
            "count" : 459,
            "type" : "SCALAR"
        },
        {
            "bufferView" : 38,
            "componentType" : 5126,
            "count" : 178,
            "max" : [
                1,
                0.9853594303131104,
                1.1618554592132568
            ],
            "min" : [
                -1,
                -0.9853594303131104,
                -1.1618554592132568
            ],
            "type" : "VEC3"
        },
        {
            "bufferView" : 39,
            "componentType" : 5126,
            "count" : 178,
            "type" : "VEC3"
        },
        {
            "bufferView" : 40,
            "componentType" : 5123,
            "count" : 864,
            "type" : "SCALAR"
        },
        {
            "bufferView" : 41,
            "componentType" : 5126,
            "count" : 65535,
            "max" : [
                1.882022500038147,
                1.927229881286621,
                0.8052291870117188
            ],
            "min" : [
                -1.8659008741378784,
                -1.7200117111206055,
                -0.8041462898254395
            ],
            "type" : "VEC3"
        },
        {
            "bufferView" : 42,
            "componentType" : 5126,
            "count" : 65535,
            "type" : "VEC3"
        },
        {
            "bufferView" : 43,
            "componentType" : 5123,
            "count" : 322065,
            "type" : "SCALAR"
        },
        {
            "bufferView" : 44,
            "componentType" : 5126,
            "count" : 65535,
            "max" : [
                1.882022500038147,
                1.927229881286621,
                0.8044040203094482
            ],
            "min" : [
                -1.8659006357192993,
                -1.7200117111206055,
                -0.8030787706375122
            ],
            "type" : "VEC3"
        },
        {
            "bufferView" : 45,
            "componentType" : 5126,
            "count" : 65535,
            "type" : "VEC3"
        },
        {
            "bufferView" : 46,
            "componentType" : 5123,
            "count" : 308649,
            "type" : "SCALAR"
        },
        {
            "bufferView" : 47,
            "componentType" : 5126,
            "count" : 5708,
            "max" : [
                1.841586709022522,
                1.9276294708251953,
                0.6931898593902588
            ],
            "min" : [
                -1.8241454362869263,
                -1.5924348831176758,
                -0.6910272836685181
            ],
            "type" : "VEC3"
        },
        {
            "bufferView" : 48,
            "componentType" : 5126,
            "count" : 5708,
            "type" : "VEC3"
        },
        {
            "bufferView" : 49,
            "componentType" : 5123,
            "count" : 30309,
            "type" : "SCALAR"
        },
        {
            "bufferView" : 50,
            "componentType" : 5126,
            "count" : 54446,
            "max" : [
                1.882022500038147,
                1.9274702072143555,
                0.8049279451370239
            ],
            "min" : [
                -1.8659008741378784,
                -1.7200117111206055,
                -0.80372154712677
            ],
            "type" : "VEC3"
        },
        {
            "bufferView" : 51,
            "componentType" : 5126,
            "count" : 54446,
            "type" : "VEC3"
        },
        {
            "bufferView" : 52,
            "componentType" : 5123,
            "count" : 163404,
            "type" : "SCALAR"
        },
        {
            "bufferView" : 53,
            "componentType" : 5126,
            "count" : 4,
            "max" : [
                1,
                0,
                1
            ],
            "min" : [
                -1,
                0,
                -1
            ],
            "type" : "VEC3"
        },
        {
            "bufferView" : 54,
            "componentType" : 5126,
            "count" : 4,
            "type" : "VEC3"
        },
        {
            "bufferView" : 55,
            "componentType" : 5123,
            "count" : 6,
            "type" : "SCALAR"
        },
        {
            "bufferView" : 56,
            "componentType" : 5126,
            "count" : 293,
            "max" : [
                4.298324108123779,
                2.417172879631835e-07,
                2.263613700866699
            ],
            "min" : [
                -4.298324108123779,
                -2.417173163848929e-07,
                -2.263613700866699
            ],
            "type" : "VEC3"
        },
        {
            "bufferView" : 57,
            "componentType" : 5126,
            "count" : 293,
            "type" : "VEC3"
        },
        {
            "bufferView" : 58,
            "componentType" : 5126,
            "count" : 293,
            "type" : "VEC2"
        },
        {
            "bufferView" : 59,
            "componentType" : 5123,
            "count" : 867,
            "type" : "SCALAR"
        },
        {
            "bufferView" : 60,
            "componentType" : 5126,
            "count" : 1101,
            "max" : [
                0.0325123630464077,
                -0.0322163850069046,
                0.021158164367079735
            ],
            "min" : [
                -0.03278418630361557,
                -0.050798870623111725,
                -0.042993150651454926
            ],
            "type" : "VEC3"
        },
        {
            "bufferView" : 61,
            "componentType" : 5126,
            "count" : 1101,
            "type" : "VEC3"
        },
        {
            "bufferView" : 62,
            "componentType" : 5126,
            "count" : 1101,
            "type" : "VEC2"
        },
        {
            "bufferView" : 63,
            "componentType" : 5123,
            "count" : 4824,
            "type" : "SCALAR"
        },
        {
            "bufferView" : 64,
            "componentType" : 5126,
            "count" : 293,
            "max" : [
                4.298324108123779,
                2.417172879631835e-07,
                2.263613700866699
            ],
            "min" : [
                -4.298324108123779,
                -2.417173163848929e-07,
                -2.263613700866699
            ],
            "type" : "VEC3"
        },
        {
            "bufferView" : 65,
            "componentType" : 5126,
            "count" : 293,
            "type" : "VEC3"
        },
        {
            "bufferView" : 66,
            "componentType" : 5126,
            "count" : 293,
            "type" : "VEC2"
        },
        {
            "bufferView" : 67,
            "componentType" : 5126,
            "count" : 296,
            "max" : [
                15.098162651062012,
                1.1787761449813843,
                1.1787761449813843
            ],
            "min" : [
                12.740610122680664,
                -1.1787761449813843,
                -1.1787761449813843
            ],
            "type" : "VEC3"
        },
        {
            "bufferView" : 68,
            "componentType" : 5126,
            "count" : 296,
            "type" : "VEC3"
        },
        {
            "bufferView" : 69,
            "componentType" : 5123,
            "count" : 1764,
            "type" : "SCALAR"
        },
        {
            "bufferView" : 70,
            "componentType" : 5126,
            "count" : 296,
            "max" : [
                -12.828876495361328,
                1.1787761449813843,
                1.1787761449813843
            ],
            "min" : [
                -15.186429023742676,
                -1.1787761449813843,
                -1.1787761449813843
            ],
            "type" : "VEC3"
        },
        {
            "bufferView" : 71,
            "componentType" : 5126,
            "count" : 296,
            "type" : "VEC3"
        },
        {
            "bufferView" : 72,
            "componentType" : 5123,
            "count" : 1764,
            "type" : "SCALAR"
        },
        {
            "bufferView" : 73,
            "componentType" : 5126,
            "count" : 4576,
            "max" : [
                19.29160499572754,
                0.2800000309944153,
                1.5374184846878052
            ],
            "min" : [
                -1.5374181270599365,
                -0.2800000309944153,
                -1.5374197959899902
            ],
            "type" : "VEC3"
        },
        {
            "bufferView" : 74,
            "componentType" : 5126,
            "count" : 4576,
            "type" : "VEC3"
        },
        {
            "bufferView" : 75,
            "componentType" : 5126,
            "count" : 4576,
            "type" : "VEC2"
        },
        {
            "bufferView" : 76,
            "componentType" : 5123,
            "count" : 4576,
            "type" : "VEC4"
        },
        {
            "bufferView" : 77,
            "componentType" : 5126,
            "count" : 4576,
            "type" : "VEC4"
        },
        {
            "bufferView" : 78,
            "componentType" : 5123,
            "count" : 7680,
            "type" : "SCALAR"
        },
        {
            "bufferView" : 79,
            "componentType" : 5126,
            "count" : 4342,
            "max" : [
                1.5374199151992798,
                0.2800000309944153,
                1.5374184846878052
            ],
            "min" : [
                -1.537419080734253,
                -33.515655517578125,
                -1.5374194383621216
            ],
            "type" : "VEC3"
        },
        {
            "bufferView" : 80,
            "componentType" : 5126,
            "count" : 4342,
            "type" : "VEC3"
        },
        {
            "bufferView" : 81,
            "componentType" : 5126,
            "count" : 4342,
            "type" : "VEC2"
        },
        {
            "bufferView" : 82,
            "componentType" : 5123,
            "count" : 4342,
            "type" : "VEC4"
        },
        {
            "bufferView" : 83,
            "componentType" : 5126,
            "count" : 4342,
            "type" : "VEC4"
        },
        {
            "bufferView" : 84,
            "componentType" : 5123,
            "count" : 7680,
            "type" : "SCALAR"
        },
        {
            "bufferView" : 85,
            "componentType" : 5126,
            "count" : 2619,
            "max" : [
                0.021551331505179405,
                8.049239158630371,
                1.1314446926116943
            ],
            "min" : [
                -0.0274313036352396,
                -8.158712387084961,
                -1.1875410079956055
            ],
            "type" : "VEC3"
        },
        {
            "bufferView" : 86,
            "componentType" : 5126,
            "count" : 2619,
            "type" : "VEC3"
        },
        {
            "bufferView" : 87,
            "componentType" : 5126,
            "count" : 582,
            "max" : [
                -0.020218707621097565,
                8.049237251281738,
                1.1314445734024048
            ],
            "min" : [
                -0.026557644829154015,
                -8.158707618713379,
                -1.187540888786316
            ],
            "type" : "VEC3"
        },
        {
            "bufferView" : 88,
            "componentType" : 5126,
            "count" : 582,
            "type" : "VEC3"
        }
    ],
    "bufferViews" : [
        {
            "buffer" : 0,
            "byteLength" : 1680,
            "byteOffset" : 0
        },
        {
            "buffer" : 0,
            "byteLength" : 1680,
            "byteOffset" : 1680
        },
        {
            "buffer" : 0,
            "byteLength" : 1120,
            "byteOffset" : 3360
        },
        {
            "buffer" : 0,
            "byteLength" : 1120,
            "byteOffset" : 4480
        },
        {
            "buffer" : 0,
            "byteLength" : 864,
            "byteOffset" : 5600
        },
        {
            "buffer" : 0,
            "byteLength" : 216,
            "byteOffset" : 6464
        },
        {
            "buffer" : 0,
            "byteLength" : 216,
            "byteOffset" : 6680
        },
        {
            "buffer" : 0,
            "byteLength" : 144,
            "byteOffset" : 6896
        },
        {
            "buffer" : 0,
            "byteLength" : 144,
            "byteOffset" : 7040
        },
        {
            "buffer" : 0,
            "byteLength" : 96,
            "byteOffset" : 7184
        },
        {
            "buffer" : 0,
            "byteLength" : 30456,
            "byteOffset" : 7280
        },
        {
            "buffer" : 0,
            "byteLength" : 30456,
            "byteOffset" : 37736
        },
        {
            "buffer" : 0,
            "byteLength" : 20304,
            "byteOffset" : 68192
        },
        {
            "buffer" : 0,
            "byteLength" : 13104,
            "byteOffset" : 88496
        },
        {
            "buffer" : 0,
            "byteLength" : 2304,
            "byteOffset" : 101600
        },
        {
            "buffer" : 0,
            "byteLength" : 2304,
            "byteOffset" : 103904
        },
        {
            "buffer" : 0,
            "byteLength" : 1908,
            "byteOffset" : 106208
        },
        {
            "buffer" : 0,
            "byteLength" : 3840,
            "byteOffset" : 108116
        },
        {
            "buffer" : 0,
            "byteLength" : 3840,
            "byteOffset" : 111956
        },
        {
            "buffer" : 0,
            "byteLength" : 2688,
            "byteOffset" : 115796
        },
        {
            "buffer" : 0,
            "byteLength" : 5124,
            "byteOffset" : 118484
        },
        {
            "buffer" : 0,
            "byteLength" : 5124,
            "byteOffset" : 123608
        },
        {
            "buffer" : 0,
            "byteLength" : 4644,
            "byteOffset" : 128732
        },
        {
            "buffer" : 0,
            "byteLength" : 3456,
            "byteOffset" : 133376
        },
        {
            "buffer" : 0,
            "byteLength" : 3456,
            "byteOffset" : 136832
        },
        {
            "buffer" : 0,
            "byteLength" : 3408,
            "byteOffset" : 140288
        },
        {
            "buffer" : 0,
            "byteLength" : 31428,
            "byteOffset" : 143696
        },
        {
            "buffer" : 0,
            "byteLength" : 31428,
            "byteOffset" : 175124
        },
        {
            "buffer" : 0,
            "byteLength" : 24360,
            "byteOffset" : 206552
        },
        {
            "buffer" : 0,
            "byteLength" : 6984,
            "byteOffset" : 230912
        },
        {
            "buffer" : 0,
            "byteLength" : 6984,
            "byteOffset" : 237896
        },
        {
            "buffer" : 0,
            "byteLength" : 3480,
            "byteOffset" : 244880
        },
        {
            "buffer" : 0,
            "byteLength" : 3588,
            "byteOffset" : 248360
        },
        {
            "buffer" : 0,
            "byteLength" : 3588,
            "byteOffset" : 251948
        },
        {
            "buffer" : 0,
            "byteLength" : 1242,
            "byteOffset" : 255536
        },
        {
            "buffer" : 0,
            "byteLength" : 2220,
            "byteOffset" : 256780
        },
        {
            "buffer" : 0,
            "byteLength" : 2220,
            "byteOffset" : 259000
        },
        {
            "buffer" : 0,
            "byteLength" : 918,
            "byteOffset" : 261220
        },
        {
            "buffer" : 0,
            "byteLength" : 2136,
            "byteOffset" : 262140
        },
        {
            "buffer" : 0,
            "byteLength" : 2136,
            "byteOffset" : 264276
        },
        {
            "buffer" : 0,
            "byteLength" : 1728,
            "byteOffset" : 266412
        },
        {
            "buffer" : 0,
            "byteLength" : 786420,
            "byteOffset" : 268140
        },
        {
            "buffer" : 0,
            "byteLength" : 786420,
            "byteOffset" : 1054560
        },
        {
            "buffer" : 0,
            "byteLength" : 644130,
            "byteOffset" : 1840980
        },
        {
            "buffer" : 0,
            "byteLength" : 786420,
            "byteOffset" : 2485112
        },
        {
            "buffer" : 0,
            "byteLength" : 786420,
            "byteOffset" : 3271532
        },
        {
            "buffer" : 0,
            "byteLength" : 617298,
            "byteOffset" : 4057952
        },
        {
            "buffer" : 0,
            "byteLength" : 68496,
            "byteOffset" : 4675252
        },
        {
            "buffer" : 0,
            "byteLength" : 68496,
            "byteOffset" : 4743748
        },
        {
            "buffer" : 0,
            "byteLength" : 60618,
            "byteOffset" : 4812244
        },
        {
            "buffer" : 0,
            "byteLength" : 653352,
            "byteOffset" : 4872864
        },
        {
            "buffer" : 0,
            "byteLength" : 653352,
            "byteOffset" : 5526216
        },
        {
            "buffer" : 0,
            "byteLength" : 326808,
            "byteOffset" : 6179568
        },
        {
            "buffer" : 0,
            "byteLength" : 48,
            "byteOffset" : 6506376
        },
        {
            "buffer" : 0,
            "byteLength" : 48,
            "byteOffset" : 6506424
        },
        {
            "buffer" : 0,
            "byteLength" : 12,
            "byteOffset" : 6506472
        },
        {
            "buffer" : 0,
            "byteLength" : 3516,
            "byteOffset" : 6506484
        },
        {
            "buffer" : 0,
            "byteLength" : 3516,
            "byteOffset" : 6510000
        },
        {
            "buffer" : 0,
            "byteLength" : 2344,
            "byteOffset" : 6513516
        },
        {
            "buffer" : 0,
            "byteLength" : 1734,
            "byteOffset" : 6515860
        },
        {
            "buffer" : 0,
            "byteLength" : 13212,
            "byteOffset" : 6517596
        },
        {
            "buffer" : 0,
            "byteLength" : 13212,
            "byteOffset" : 6530808
        },
        {
            "buffer" : 0,
            "byteLength" : 8808,
            "byteOffset" : 6544020
        },
        {
            "buffer" : 0,
            "byteLength" : 9648,
            "byteOffset" : 6552828
        },
        {
            "buffer" : 0,
            "byteLength" : 3516,
            "byteOffset" : 6562476
        },
        {
            "buffer" : 0,
            "byteLength" : 3516,
            "byteOffset" : 6565992
        },
        {
            "buffer" : 0,
            "byteLength" : 2344,
            "byteOffset" : 6569508
        },
        {
            "buffer" : 0,
            "byteLength" : 3552,
            "byteOffset" : 6571852
        },
        {
            "buffer" : 0,
            "byteLength" : 3552,
            "byteOffset" : 6575404
        },
        {
            "buffer" : 0,
            "byteLength" : 3528,
            "byteOffset" : 6578956
        },
        {
            "buffer" : 0,
            "byteLength" : 3552,
            "byteOffset" : 6582484
        },
        {
            "buffer" : 0,
            "byteLength" : 3552,
            "byteOffset" : 6586036
        },
        {
            "buffer" : 0,
            "byteLength" : 3528,
            "byteOffset" : 6589588
        },
        {
            "buffer" : 0,
            "byteLength" : 54912,
            "byteOffset" : 6593116
        },
        {
            "buffer" : 0,
            "byteLength" : 54912,
            "byteOffset" : 6648028
        },
        {
            "buffer" : 0,
            "byteLength" : 36608,
            "byteOffset" : 6702940
        },
        {
            "buffer" : 0,
            "byteLength" : 36608,
            "byteOffset" : 6739548
        },
        {
            "buffer" : 0,
            "byteLength" : 73216,
            "byteOffset" : 6776156
        },
        {
            "buffer" : 0,
            "byteLength" : 15360,
            "byteOffset" : 6849372
        },
        {
            "buffer" : 0,
            "byteLength" : 52104,
            "byteOffset" : 6864732
        },
        {
            "buffer" : 0,
            "byteLength" : 52104,
            "byteOffset" : 6916836
        },
        {
            "buffer" : 0,
            "byteLength" : 34736,
            "byteOffset" : 6968940
        },
        {
            "buffer" : 0,
            "byteLength" : 34736,
            "byteOffset" : 7003676
        },
        {
            "buffer" : 0,
            "byteLength" : 69472,
            "byteOffset" : 7038412
        },
        {
            "buffer" : 0,
            "byteLength" : 15360,
            "byteOffset" : 7107884
        },
        {
            "buffer" : 0,
            "byteLength" : 31428,
            "byteOffset" : 7123244
        },
        {
            "buffer" : 0,
            "byteLength" : 31428,
            "byteOffset" : 7154672
        },
        {
            "buffer" : 0,
            "byteLength" : 6984,
            "byteOffset" : 7186100
        },
        {
            "buffer" : 0,
            "byteLength" : 6984,
            "byteOffset" : 7193084
        }
    ],
    "buffers" : [
        {
            "byteLength" : 7200068,
            "uri" : "Tula_white.bin"
        }
    ]
}
